[
    {
        "icon": "fa fa-user",
        "key": "Name",
        "value": "M. Douglas Jauhar Nehru"
    },
    {
        "icon": "fa fa-calendar",
        "key": "Date of Birth",
        "value": "Kediri, 25 September 1998"
    },
    {
        "icon": "fa fa-phone",
        "key": "Phone",
        "value": "+62-8125-9001-506"
    },
    {
        "icon": "fa fa-envelope",
        "key": "Email",
        "value": "douglasjauhar@gmail.com"
    },
    {
        "icon": "fa fa-map-marker",
        "key": "Address",
        "value": "Jakarta, Indonesia"
    }
]